{
  "abipath": "C:\\dlt2\\hashlynx",
  "logfile": "logfile.log",
  "rpcurl": "HTTP://127.0.0.1:7545",
  "startblock": "",
  "endblock": "",
  "chromelog": "C:\\dlt2\\hashlynx_data\\hashlynxwebsocket.har",
  "address": {
  }
}
