{
  "profiles": {
    "ethEventDecoder": {
      "commandName": "Project",
      "commandLineArgs": "HTTP://127.0.0.1:7545 C:\\dlt2\\lenderDAOStable\\contracts\\build\\contracts test.log"
    }
  }
}